{
    "KPlugin": {
        "Description": "Geolocation from GPS address.",
        "Description[ar]": "تحديد الموقع الجغرافي من عنوان جي.بي.اس",
        "Description[az]": "GPS ünvanına görə coğrafi məkan.",
        "Description[bg]": "Геолокация от GPS адрес.",
        "Description[ca@valencia]": "Geolocalització des d'una adreça GPS.",
        "Description[ca]": "Geolocalització des d'una adreça GPS.",
        "Description[cs]": "Geolokace z GPS adresy.",
        "Description[da]": "Geo-lokalisering ud fra GPS-adresse.",
        "Description[de]": "Geolokalisierung mittels GPS-Koordinate.",
        "Description[en_GB]": "Geolocation from GPS address.",
        "Description[es]": "Geolocalización desde una dirección GPS.",
        "Description[eu]": "Geokokapena GPS helbidetik.",
        "Description[fi]": "Sijaintitieto GPS-osoitteesta.",
        "Description[fr]": "Géo-localisation depuis une adresse GPS.",
        "Description[hu]": "A földrajzi helyzet meghatározása GPS segítségével.",
        "Description[ia]": "Geolocation ex adresse GPS.",
        "Description[id]": "Geolokasi dari alamat GPS.",
        "Description[is]": "Hnattstaðsetning eftir GPS vistfangi.",
        "Description[it]": "Geolocalizzazione dalla posizione GPS.",
        "Description[ja]": "GPS アドレスによるジオロケーション",
        "Description[ko]": "GPS 위치에 따른 주소입니다.",
        "Description[lt]": "Geografinės vietos nustatymas pagal GPS adresą.",
        "Description[nl]": "Geolocatie uit GPS-adres.",
        "Description[nn]": "Geolocation med GPS-adresse.",
        "Description[pa]": "GPS ਐਡਰੈੱਸ ਤੋਂ ਭੂਗੋਲਿਕ ਟਿਕਾਣਾ।",
        "Description[pl]": "Geolokalizuje z adresu GPS.",
        "Description[pt]": "Geo-localização a partir do endereço do GPS.",
        "Description[pt_BR]": "Localização geográfica de endereços de GPS.",
        "Description[ro]": "Geolocalizare din adresă GPS.",
        "Description[ru]": "Геолокация по адресу GPS.",
        "Description[sk]": "Geolokalizácia z GPS adresy.",
        "Description[sl]": "Geolokacija iz podatkov GPS.",
        "Description[sv]": "Geografisk lokalisering från GPS-adress.",
        "Description[ta]": "GPS முகவரியிலிருந்து இருப்பிடத்தைக் கண்டுபிடிக்கும்",
        "Description[tr]": "GPS adresinden coğrafi konum.",
        "Description[uk]": "Геопозиціювання за GPS-адресою",
        "Description[vi]": "Định vị địa lí từ địa chỉ GPS.",
        "Description[x-test]": "xxGeolocation from GPS address.xx",
        "Description[zh_CN]": "通过 GPS 地址确定的地理位置。",
        "Icon": "applications-internet",
        "Id": "gps",
        "Name": "Geolocation GPS",
        "Name[ar]": "تحديد الموقع الجغرافي جي.بي.اس",
        "Name[az]": "GPS üzrə coğrafi məkan",
        "Name[bg]": "Геолокация (GPS)",
        "Name[bs]": "Geolokacija GPS",
        "Name[ca@valencia]": "Geolocalització GPS",
        "Name[ca]": "Geolocalització GPS",
        "Name[cs]": "Geolokace GPS",
        "Name[csb]": "Geògrafnô lokalizacëjô GPS",
        "Name[da]": "GPS til geo-lokalisering",
        "Name[de]": "Geolokalisierung GPS",
        "Name[el]": "GPS Γεωτοποθέτηση",
        "Name[en_GB]": "Geolocation GPS",
        "Name[eo]": "GPS loktrovado",
        "Name[es]": "Geolocalización mediante GPS",
        "Name[et]": "Geolokatsioon GPS-ist",
        "Name[eu]": "GPS geokokapena",
        "Name[fi]": "Paikkasijainti GPS",
        "Name[fr]": "Géo-localisation par GPS",
        "Name[fy]": "Geolokaasje GPS",
        "Name[ga]": "Córas Suite Domhanda Geolocation",
        "Name[gl]": "Xeolocalización con GPS",
        "Name[he]": "מציאת מיקום גאוגרפי GPS",
        "Name[hi]": "भौगोलिक स्थान जीपीएस",
        "Name[hr]": "GPS geolociranje",
        "Name[hsb]": "Geolokacija GPS",
        "Name[hu]": "GPS-alapú helyzetjelző",
        "Name[ia]": "Geolocation GPS",
        "Name[id]": "Geolokasi GPS",
        "Name[is]": "GPS hnattstaðsetning",
        "Name[it]": "Geolocalizzazione GPS",
        "Name[ja]": "ジオロケーション GPS",
        "Name[ka]": "გეოლოკაცია GPS",
        "Name[kk]": "GPS-тен орнын табу",
        "Name[km]": "ទីតាំង​ភូមិសាស្ត្រ GPS",
        "Name[kn]": "ಭೂಪ್ರದೇಶದ GPS",
        "Name[ko]": "GPS 위치",
        "Name[lt]": "Geografinės vietos nustatymas pagal GPS",
        "Name[lv]": "Ģeolokācija GPS",
        "Name[mai]": "भूअवस्थिति जीपीएस",
        "Name[mk]": "ГПС за геолоцирање",
        "Name[ml]": "ജിപിഎസ് ഭൂസ്ഥാനങ്ങള്‍",
        "Name[mr]": "GPS जिओलोकेशन",
        "Name[nb]": "Geografisk plassering GPS",
        "Name[nds]": "GPS-Eersteed",
        "Name[nl]": "Geolocatie GPS",
        "Name[nn]": "Geolocation GPS",
        "Name[pa]": "ਭੂਗੋਲਿਕ-ਟਿਕਾਣਾ GPS",
        "Name[pl]": "Geolokalizacja: GPS",
        "Name[pt]": "Geo-Localização por GPS",
        "Name[pt_BR]": "Localização geográfica GPS",
        "Name[ro]": "GPS geolocalizare",
        "Name[ru]": "Геолокация по GPS",
        "Name[si]": "පිහිටුම් GPS",
        "Name[sk]": "Geolokalizácia GPS",
        "Name[sl]": "Geolokacija GPS",
        "Name[sr@ijekavian]": "геолокација ГПС",
        "Name[sr@ijekavianlatin]": "geolokacija GPS",
        "Name[sr@latin]": "geolokacija GPS",
        "Name[sr]": "геолокација ГПС",
        "Name[sv]": "Lokalisera geografiskt med GPS",
        "Name[ta]": "GPS மூலம் புவியிருப்பிடம்",
        "Name[tg]": "Ҷойгиршавии ҷуғрофии GPS",
        "Name[th]": "การระบุพิกัดตำแหน่งด้วย GPS",
        "Name[tr]": "Coğrafi Konum GPS",
        "Name[ug]": "جۇغراپىيىلىك ئورۇن GPS",
        "Name[uk]": "Геопозиціювання за GPS",
        "Name[vi]": "Định vị địa lí GPS",
        "Name[wa]": "GPS di djeyoplaeçmint",
        "Name[x-test]": "xxGeolocation GPSxx",
        "Name[zh_CN]": "GPS 地理位置",
        "Name[zh_TW]": "Geolocation GPS"
    },
    "X-KDE-ParentApp": "geolocation"
}
